1;MARC;H;1125;14,59
2;JÚLIA/JULIA;M;954;12,37
3;MARTINA;M;889;11,53
4;LAIA;M;833;10,8
5;ÀLEX/ÁLEX;H;753;9,77
6;CARLA;M;748;9,7
7;ÈRIC/ERIC;H;735;9,53
8;PAULA;M;697;9,04
9;POL;H;696;9,03
10;MARIA/MARÍA;M;683;8,86
11;PAU;H;669;8,68
12;LUCÍA;M;656;8,51
13;HUGO;H;640;8,3
14;BIEL;H;636;8,25
15;ARNAU;H;621;8,05
16;GERARD;H;600;7,78
17;AINA;M;591;7,67
18;JAN;H;589;7,64
19;MARTÍ;H;577;7,48
20;NOA;M;548;7,11
21;NIL;H;538;6,98
22;SARA;M;529;6,86
23;CLÀUDIA/CLAUDIA;M;528;6,85
24;EMMA;M;515;6,68
25;ARIADNA;M;452;5,86
26;ALBA;M;451;5,85
27;ALEIX;H;450;5,84
28;DAVID;H;441;5,72
29;ORIOL;H;431;5,59
30;DANIEL;H;425;5,51
31;ADAM;H;405;5,25
32;ABRIL;M;380;4,93
33;JOEL;H;379;4,92
34;ADRIÀ;H;373;4,84
35;IKER;H;372;4,83
36;ARLET;M;369;4,79
37;JORDI;H;357;4,63
38;DANIELA;M;355;4,6
39;LEO;H;355;4,6
40;JANA;M;348;4,51
41;BERTA;M;338;4,38
42;ONA;M;333;4,32
43;VÍCTOR;H;329;4,27
44;ANNA;M;324;4,2
45;ROGER;H;320;4,15
46;AINHOA;M;318;4,12
47;JOAN;H;310;4,02
48;GUILLEM;H;308;3,99
49;SOFÍA/SOFIA;M;304;3,94
50;IZAN;H;291;3,77
51;IRENE;M;280;3,63
52;LAURA;M;279;3,62
53;LUCAS;H;277;3,59
54;ALEJANDRO;H;276;3,58
55;VALÈRIA/VALERIA;M;268;3,48
56;ADRIÁN;H;264;3,42
57;UNAI;H;263;3,41
58;NORA;M;256;3,32
59;MOHAMED;H;254;3,29
60;PABLO;H;242;3,14
61;MARINA;M;240;3,11
62;BRUNO;H;239;3,1
63;ÁLVARO;H;238;3,09
64;IVET;M;238;3,09
65;VALENTINA;M;237;3,07
66;MARIO;H;236;3,06
67;NÚRIA/NURIA;M;232;3,01
68;LLUC;H;231;3
69;MAR;M;229;2,97
70;MARTA;M;229;2,97
71;IVAN/IVÁN;H;226;2,93
72;CARLOTA;M;217;2,81
73;ROC;H;214;2,78
74;IAN;H;203;2,63
75;HÈCTOR/HÉCTOR;H;202;2,62
76;NICOLÀS/NICOLÁS;H;202;2,62
77;AITANA;M;201;2,61
78;MARIONA;M;201;2,61
79;SERGI;H;200;2,59
80;ERIK;H;196;2,54
81;MAX;H;193;2,5
82;AINARA;M;191;2,48
83;RAYAN;H;190;2,46
84;LEIRE;M;185;2,4
85;CLARA;M;184;2,39
86;AITOR;H;176;2,28
87;MIQUEL;H;168;2,18
88;NEREA;M;168;2,18
89;ELOI;H;167;2,17
90;XAVI;H;165;2,14
91;XAVIER;H;165;2,14
92;AYA;M;164;2,13
93;ALBERT;H;162;2,1
94;DÍDAC;H;159;2,06
95;MIREIA;M;158;2,05
96;ELSA;M;157;2,04
97;AARON/AARÓN;H;155;2,01
98;BRUNA;M;153;1,98
99;ISAAC;H;149;1,93
100;GABRIEL;H;148;1,92
101;ALÈXIA/ALEXIA;M;146;1,89
102;FERRAN;H;146;1,89
103;ADRIANA;M;140;1,82
104;DIEGO;H;140;1,82
105;BERNAT;H;139;1,8
106;BLANCA;M;133;1,73
107;ELENA;M;133;1,73
108;LEYRE;M;133;1,73
109;CHLOE/CHLÓE;M;132;1,71
110;JUDIT;M;131;1,7
111;ÒSCAR/ÓSCAR;H;131;1,7
112;SERGIO;H;131;1,7
113;ANA;M;130;1,69
114;OLÍVIA/OLIVIA;M;127;1,65
115;QUERALT;M;125;1,62
116;ANDREA;M;124;1,61
117;EVA;M;124;1,61
118;JOANA;M;124;1,61
119;RAÜL/RAÚL;H;124;1,61
120;ARAN/ARÁN;H;123;1,6
121;IRIS;M;118;1,53
122;JUDITH;M;117;1,52
123;HELENA;M;116;1,5
124;ÀNGEL/ÁNGEL;H;115;1,49
125;QUIM;H;115;1,49
126;AXEL;H;114;1,48
127;MALAK;M;114;1,48
128;LOLA;M;113;1,47
129;MIA;M;113;1,47
130;NAIA;M;112;1,45
131;CARLOS;H;111;1,44
132;INÉS;M;111;1,44
133;GISELA;M;110;1,43
134;ÈLIA/ELIA;M;109;1,41
135;ISMAEL;H;109;1,41
136;JAVIER;H;109;1,41
137;JOSÉ;H;109;1,41
138;MARCOS;H;108;1,4
139;ALEXANDRA;M;106;1,37
140;ASIER;H;105;1,36
141;SAMUEL;H;105;1,36
142;ANTONIO;H;103;1,34
143;SALMA;M;103;1,34
144;GAEL;H;102;1,32
145;RUBÈN/RUBÉN;H;102;1,32
146;CRISTINA;M;100;1,3
147;NATÀLIA/NATALIA;M;100;1,3
148;ZOÈ/ZOÉ/ZOE;M;100;1,3
149;ALAN;H;99;1,28
150;MATEO;H;98;1,27
151;GALA;M;97;1,26
152;TEO;H;97;1,26
153;LINA;M;96;1,25
154;OMAR;H;96;1,25
155;JOSEP;H;95;1,23
156;MÀRIAM/MARIAM;M;94;1,22
157;MARTÍN;H;94;1,22
158;MARWA;M;94;1,22
159;EDGAR;H;93;1,21
160;JUAN;H;93;1,21
161;MIGUEL;H;93;1,21
162;ANIOL;H;92;1,19
163;GENÍS;H;91;1,18
164;MARCEL;H;91;1,18
165;NAYARA;M;91;1,18
166;YASMIN;M;91;1,18
167;AROA;M;87;1,13
168;NAIARA;M;86;1,12
169;OLIVER;H;86;1,12
170;ENZO;H;85;1,1
171;FÀTIMA/FÁTIMA;M;85;1,1
172;AYMAN;H;82;1,06
173;JAUME;H;82;1,06
174;MANUEL;H;81;1,05
175;ANAS/ANÁS;H;80;1,04
176;CANDELA;M;80;1,04
177;NÀDIA/NADIA;M;80;1,04
178;YOUSSEF;H;80;1,04
179;GINA;M;79;1,02
180;LUCÀ;H;79;1,02
181;TOMÀS/TOMÁS;H;79;1,02
182;ALMA;M;78;1,01
183;CLOÈ/CLOE;M;78;1,01
184;XÈNIA/XENIA;M;78;1,01
185;LIA/LÍA;M;76;0,99
186;ROCÍO;M;75;0,97
187;YERAY;H;75;0,97
188;DYLAN;H;74;0,96
189;DINA;M;73;0,95
190;ENRIC;H;73;0,95
191;ÀYOUB/ÁYOUB;H;72;0,93
192;IRIA/IRÍA;M;70;0,91
193;CESC;H;69;0,89
194;CRISTIÁN;H;69;0,89
195;IRINA;M;69;0,89
196;YAGO;H;69;0,89
197;ÍNGRID;M;68;0,88
198;JULEN;H;68;0,88
199;ELNA;M;67;0,87
200;ALÍCIA/ALICIA;M;66;0,86
201;VEGA;M;66;0,86
202;MANEL;H;65;0,84
203;MARCO;H;65;0,84
204;VICTÒRIA/VICTORIA;M;65;0,84
205;ADA;M;64;0,83
206;ERIKA;M;64;0,83
207;MÍRIAM/MIRIAM;M;64;0,83
208;NICOLE;M;64;0,83
209;VERA;M;61;0,79
210;IMRAN;H;60;0,78
211;JESÚS;H;60;0,78
212;ALEJANDRA;M;59;0,77
213;LARA;M;59;0,77
214;ANDREU;H;58;0,75
215;ELOY;H;57;0,74
216;ESTEL;M;57;0,74
217;ABEL;H;56;0,73
218;ALI/ALÍ;H;56;0,73
219;EDUARD;H;56;0,73
220;ISONA;M;56;0,73
221;LUIS;H;56;0,73
222;YASSIN;H;56;0,73
223;BLAI;H;55;0,71
224;JANNAT;M;54;0,7
225;KHADIJA;M;54;0,7
226;AKRAM;H;53;0,69
227;EDURNE;M;53;0,69
228;JON;H;53;0,69
229;CARMEN;M;52;0,67
230;SEBASTIAN/SEBASTIÁN;H;52;0,67
231;GAL·LA;M;51;0,66
232;RITA;M;51;0,66
233;GUILLERMO;H;50;0,65
234;ITZIAR;M;50;0,65
235;KILIAN;H;50;0,65
236;MAIA;M;50;0,65
237;NOAH;H;50;0,65
238;PERE;H;50;0,65
239;SANTIAGO;H;50;0,65
240;FRANCISCO;H;49;0,64
241;MERITXELL;M;49;0,64
242;THAÍS/THAIS;M;49;0,64
243;ZAKARIA;H;49;0,64
244;CÈLIA/CELIA;M;48;0,62
245;DEREK;H;48;0,62
246;JOFRE;H;48;0,62
247;KEVIN;H;48;0,62
248;MATÍAS;H;48;0,62
249;RAFAEL;H;48;0,62
250;SIRA;M;48;0,62
251;VINYET;M;48;0,62
252;YAIZA;M;48;0,62
253;DIANA;M;47;0,61
254;MARÇAL;H;47;0,61
255;NICO;H;47;0,61
256;PEDRO;H;47;0,61
257;SÍLVIA/SILVIA;M;47;0,61
258;TÀNIA/TANIA;M;47;0,61
259;ARITZ;H;46;0,6
260;BILAL;H;46;0,6
261;ELÍAS;H;46;0,6
262;NOÈLIA/NOELIA;M;46;0,6
263;THIAGO;H;46;0,6
264;ARES;M;45;0,58
265;GUIU;H;45;0,58
266;TONI;H;45;0,58
267;ANAÍS/ANAÏS/ANAIS;M;44;0,57
268;ANDRÉS;H;44;0,57
269;FRANCESC;H;44;0,57
270;GONZALO;H;44;0,57
271;IBRAHIM;H;44;0,57
272;LLUÍS;H;44;0,57
273;DÚNIA/DUNIA;M;43;0,56
274;JORGE;H;43;0,56
275;MOHAMED AMIN;H;43;0,56
276;NEUS;M;43;0,56
277;RAMON/RAMÓN;H;43;0,56
278;WALID;H;43;0,56
279;ÀFRICA/ÁFRICA;M;42;0,54
280;AMIN;H;42;0,54
281;AMIRA;M;42;0,54
282;ARAN/ARÁN;M;42;0,54
283;IMAN;M;42;0,54
284;NAHIA;M;42;0,54
285;RAQUEL;M;42;0,54
286;GABRIELA;M;41;0,53
287;GEMMA;M;41;0,53
288;GUIM;H;41;0,53
289;HAMZA;H;41;0,53
290;ISABELLA;M;41;0,53
291;ALEXANDER;H;40;0,52
292;GIL;H;40;0,52
293;IU/ÏU;H;40;0,52
294;PEP;H;40;0,52
295;SARAY;M;40;0,52
296;ÀNGELA/ÁNGELA;M;39;0,51
297;CARLES;H;39;0,51
298;GORKA;H;39;0,51
299;LIAM;H;39;0,51
300;LUA;M;39;0,51
301;OT;H;39;0,51
302;LÍDIA/LIDIA;M;38;0,49
303;LUNA;M;38;0,49
304;NAGORE;M;38;0,49
305;SANDRA;M;38;0,49
306;AINOA;M;37;0,48
307;ALEXIS;H;37;0,48
308;ISABEL;M;37;0,48
309;LEONARDO;H;37;0,48
310;AHMED;H;36;0,47
311;GEORGINA;M;36;0,47
312;AMIR;H;35;0,45
313;ANDER;H;35;0,45
314;DANI;H;35;0,45
315;INAS;M;35;0,45
316;NINA;M;35;0,45
317;NIZAR;H;35;0,45
318;URIEL;H;35;0,45
319;ASTRID;M;34;0,44
320;HAJAR;M;34;0,44
321;HIBA;M;34;0,44
322;IGNACIO;H;34;0,44
323;JORDINA;M;34;0,44
324;MIGUEL ÀNGEL/MIGUEL ÁNGEL;H;34;0,44
325;ROBERT;H;34;0,44
326;YASMINA;M;34;0,44
327;ADÁN;H;33;0,43
328;CAROLINA;M;33;0,43
329;DANIELLA;M;33;0,43
330;RUTH;M;33;0,43
331;VIOLETA;M;33;0,43
332;GRETA;M;32;0,42
333;LLUNA;M;32;0,42
334;MAURO;H;32;0,42
335;SÒNIA/SONIA;M;32;0,42
336;CHRISTIAN;H;31;0,4
337;DARIO/DARÍO;H;31;0,4
338;RÀNIA/RANIA;M;31;0,4
339;YOUSRA;M;31;0,4
340;AICHA;M;30;0,39
341;CÈSAR/CÉSAR;H;30;0,39
342;IBAI;H;30;0,39
343;MAYA;M;30;0,39
344;PAOLA;M;30;0,39
345;SAAD;H;30;0,39
346;YANIRA;M;30;0,39
347;AMINA;M;29;0,38
348;BETH;M;29;0,38
349;BIANCA;M;29;0,38
350;BRU;H;29;0,38
351;DANA;M;29;0,38
352;ISRAE;M;29;0,38
353;ACHRAF;H;28;0,36
354;GIULIA;M;28;0,36
355;IKRAM;M;28;0,36
356;MARYAM;M;28;0,36
357;NOUR;M;28;0,36
358;RIM;M;28;0,36
359;SORAYA;M;28;0,36
360;ELISA;M;27;0,35
361;IGNASI;H;27;0,35
362;ILÍAS;H;27;0,35
363;ILYAS;H;27;0,35
364;IVETTE;M;27;0,35
365;JANNA;M;27;0,35
366;SAMARA;M;27;0,35
367;YOUNES;H;27;0,35
368;AISHA;M;26;0,34
369;ESTHER;M;26;0,34
370;EUDALD;H;26;0,34
371;JOAQUIM;H;26;0,34
372;MOHAMMED;H;26;0,34
373;RICARD;H;26;0,34
374;WIAM;M;26;0,34
375;YASSIR;H;26;0,34
376;BLAU;M;25;0,32
377;BRYAN;H;25;0,32
378;FARAH;M;25;0,32
379;FÈLIX/FÉLIX;H;25;0,32
380;FERNANDO;H;25;0,32
381;MANAR;M;25;0,32
382;NACHO;H;25;0,32
383;SHEILA;M;25;0,32
384;YASMINE;M;25;0,32
385;ALBERTO;H;24;0,31
386;ALESSANDRO;H;24;0,31
387;EDUARDO;H;24;0,31
388;GLÒRIA/GLORIA;M;24;0,31
389;GUIFRÉ;H;24;0,31
390;ISRAA;M;24;0,31
391;MARA;M;24;0,31
392;MARAM;M;24;0,31
393;MOHAMED REDA;H;24;0,31
394;NOEMÍ/NOEMI;M;24;0,31
395;ERICK;H;23;0,3
396;ESTELA;M;23;0,3
397;EZEQUIEL;H;23;0,3
398;FÀTIMA ZAHRA/FÁTIMA ZAHRA;M;23;0,3
399;IAGO;H;23;0,3
400;JOSÉ ANTONIO;H;23;0,3
401;MÀXIM;H;23;0,3
402;MÒNICA/MÓNICA;M;23;0,3
403;NOEL;H;23;0,3
404;OLEGUER;H;23;0,3
405;ROSA;M;23;0,3
406;TANIT;M;23;0,3
407;AGNÈS;M;22;0,29
408;CORAL;M;22;0,29
409;DAFNE;M;22;0,29
410;ELISABET;M;22;0,29
411;HAFSA;M;22;0,29
412;KAI;H;22;0,29
413;KARIM;H;22;0,29
414;LENA;M;22;0,29
415;MÀRIUS;H;22;0,29
416;PATRÍCIA/PATRICIA;M;22;0,29
417;SAÜL/SAÚL;H;22;0,29
418;TXELL;M;22;0,29
419;YAHYA;H;22;0,29
420;ZAIRA;M;22;0,29
421;AMAL;M;21;0,27
422;ANA MARIA/ANA MARÍA;M;21;0,27
423;BET;M;21;0,27
424;CAMILA;M;21;0,27
425;DENÍS/DENIS;H;21;0,27
426;EDER;H;21;0,27
427;ENEKO;H;21;0,27
428;EVELYN;M;21;0,27
429;IONA;M;21;0,27
430;ISLAM;H;21;0,27
431;ISMAÏL/ISMAÍL;H;21;0,27
432;LAILA;M;21;0,27
433;MARWAN;H;21;0,27
434;MATEU;H;21;0,27
435;MÁXIMO;H;21;0,27
436;NEIZAN;H;21;0,27
437;SAMI;H;21;0,27
438;YAEL;H;21;0,27
439;ALAE;M;20;0,26
440;EIDAN;H;20;0,26
441;ENRIQUE;H;20;0,26
442;EVAN;H;20;0,26
443;FATOUMATA;M;20;0,26
444;ISHAK;H;20;0,26
445;JAIRO;H;20;0,26
446;JOAQUÍN;H;20;0,26
447;MOUAD;H;20;0,26
448;REDA;H;20;0,26
449;SARAH;M;20;0,26
450;TERESA;M;20;0,26
451;ZAID;H;20;0,26
452;ALEXANDRE;H;19;0,25
453;ARON/ARÓN;H;19;0,25
454;AZAHARA;M;19;0,25
455;BASMA;M;19;0,25
456;DANTE;H;19;0,25
457;DUNA;M;19;0,25
458;JANAT;M;19;0,25
459;JOSÉ MARIA/JOSÉ MARÍA;H;19;0,25
460;JUAN ANTONIO;H;19;0,25
461;JULIETA;M;19;0,25
462;JUNE;M;19;0,25
463;MAGÍ;H;19;0,25
464;MARK;H;19;0,25
465;NAIRA;M;19;0,25
466;OTGER;H;19;0,25
467;SABRINA;M;19;0,25
468;SAFAE;M;19;0,25
469;UMA;M;19;0,25
470;VERÒNICA/VERÓNICA;M;19;0,25
471;WASSIM;H;19;0,25
472;ADAY;H;18;0,23
473;AMÈLIA/AMELIA;M;18;0,23
474;AMINATA;M;18;0,23
475;ARAM;H;18;0,23
476;ARTURO;H;18;0,23
477;ASHLEY;M;18;0,23
478;DÀLIA/DALIA;M;18;0,23
479;DAMIÀ;H;18;0,23
480;GRAU;H;18;0,23
481;GUERAU;H;18;0,23
482;IRATI;M;18;0,23
483;IRUNE;M;18;0,23
484;IYAD;H;18;0,23
485;MARIAMA;M;18;0,23
486;MERCÈ;M;18;0,23
487;MIKEL;H;18;0,23
488;MILA;M;18;0,23
489;MONTSERRAT;M;18;0,23
490;NEL;H;18;0,23
491;NOOR;M;18;0,23
492;REBECA;M;18;0,23
493;SANTI;H;18;0,23
494;YASSER;H;18;0,23
495;YERAI;H;18;0,23
496;ABRAHAM;H;17;0,22
497;AMANDA;M;17;0,22
498;ARES;H;17;0,22
499;ARTUR;H;17;0,22
500;AURORA;M;17;0,22
501;BADR;H;17;0,22
502;BENJAMÍN;H;17;0,22
503;EIDEN;H;17;0,22
504;IBRAHIMA;H;17;0,22
505;JACOB;H;17;0,22
506;KAREN;M;17;0,22
507;LEA;M;17;0,22
508;LEIA;M;17;0,22
509;LORENA;M;17;0,22
510;MANUELA;M;17;0,22
511;NADIR;H;17;0,22
512;ROMAISA;M;17;0,22
513;RUT;M;17;0,22
514;SALVADOR;H;17;0,22
515;AINET;M;16;0,21
516;AMAIA;M;16;0,21
517;ANASS;H;16;0,21
518;DOUAA;M;16;0,21
519;ERIN;M;16;0,21
520;FELIPE;H;16;0,21
521;FIONA;M;16;0,21
522;MARIAN;M;16;0,21
523;MOISÈS/MOISÉS;H;16;0,21
524;NORAH;M;16;0,21
525;PAÜL/PAÚL;H;16;0,21
526;RICARDO;H;16;0,21
527;RODRIGO;H;16;0,21
528;ROMAN/ROMÁN;H;16;0,21
529;ROMEO;H;16;0,21
530;SIMON/SIMÓN;H;16;0,21
531;SOPHIE;M;16;0,21
532;TASNIM;M;16;0,21
533;TON;H;16;0,21
534;ANTONI;H;15;0,19
535;ANWAR;H;15;0,19
536;ARIANA;M;15;0,19
537;AURA;M;15;0,19
538;ELISABETH;M;15;0,19
539;ÈNIA/ENIA;M;15;0,19
540;ERICA;M;15;0,19
541;ETHAN;H;15;0,19
542;FRAN;H;15;0,19
543;FRANCISCO JAVIER;H;15;0,19
544;ISRAEL;H;15;0,19
545;ITZEL;M;15;0,19
546;JAIME;H;15;0,19
547;JÈSSICA/JESSICA;M;15;0,19
548;JUAN JOSÉ;H;15;0,19
549;JULIÀ;H;15;0,19
550;LUKA;H;15;0,19
551;MARÍA DEL CARMEN;M;15;0,19
552;MARIANA;M;15;0,19
553;NATHAN;H;15;0,19
554;NAYRA;M;15;0,19
555;PATRICK;H;15;0,19
556;RIHAM;M;15;0,19
557;SAFA;M;15;0,19
558;TAHA;H;15;0,19
559;TATIANA;M;15;0,19
560;WISSAL;M;15;0,19
561;ABDELLAH;H;14;0,18
562;AGUSTÍN;H;14;0,18
563;AIMAN;H;14;0,18
564;ARANTXA;M;14;0,18
565;AVRIL;M;14;0,18
566;CHAIMAE;M;14;0,18
567;DAN;H;14;0,18
568;DOUNIA;M;14;0,18
569;HIDAYA;M;14;0,18
570;HUG;H;14;0,18
571;JONATHAN;H;14;0,18
572;JOSÉ LUIS;H;14;0,18
573;JULIO;H;14;0,18
574;KIARA;M;14;0,18
575;LEILA;M;14;0,18
576;LILA;M;14;0,18
577;MAROUA;M;14;0,18
578;MICHAEL;H;14;0,18
579;MOHAMED ALI/MOHAMED ALÍ;H;14;0,18
580;NABIL;H;14;0,18
581;NAZARET;M;14;0,18
582;NEIL;H;14;0,18
583;OLGA;M;14;0,18
584;RANYA;M;14;0,18
585;SAFAA;M;14;0,18
586;SOUFIAN;H;14;0,18
587;VALENTINO;H;14;0,18
588;YARA;M;14;0,18
589;ADELA;M;13;0,17
590;ADNAN;H;13;0,17
591;ANGIE;M;13;0,17
592;ANTÒNIA/ANTONIA;M;13;0,17
593;ARWA;M;13;0,17
594;DÀNAE/DÁNAE/DANAE;M;13;0,17
595;DOLORES;M;13;0,17
596;ELISENDA;M;13;0,17
597;EULÀLIA/EULALIA;M;13;0,17
598;HAWA;M;13;0,17
599;IRATXE;M;13;0,17
600;JENNIFER;M;13;0,17
601;MANAL;M;13;0,17
602;NADA;M;13;0,17
603;NARCÍS;H;13;0,17
604;NAROA;M;13;0,17
605;NIRA;M;13;0,17
606;OTTO;H;13;0,17
607;RIHAB;M;13;0,17
608;SAMIR;H;13;0,17
609;SIRAJ;H;13;0,17
610;THEO;H;13;0,17
611;UNAY;H;13;0,17
612;ABDERRAHMAN;H;12;0,16
613;ALICE;M;12;0,16
614;ANASTÀSIA/ANASTASIA;M;12;0,16
615;ANIA;M;12;0,16
616;ARIANNA;M;12;0,16
617;ARLETTE;M;12;0,16
618;ASMA;M;12;0,16
619;BORJA;H;12;0,16
620;CATALINA;M;12;0,16
621;CORA;M;12;0,16
622;DANNA;M;12;0,16
623;DOUAE;M;12;0,16
624;EIDER;M;12;0,16
625;EIRA;M;12;0,16
626;EMILY;M;12;0,16
627;GERMÁN;H;12;0,16
628;HICHAM;H;12;0,16
629;HOUDA;M;12;0,16
630;IÑAKI;H;12;0,16
631;JOSÉ MANUEL;H;12;0,16
632;KAOUTAR;M;12;0,16
633;KARLA;M;12;0,16
634;KIRA;M;12;0,16
635;MAROUAN;H;12;0,16
636;MATTEO;H;12;0,16
637;MICHELLE;M;12;0,16
638;NOAH;M;12;0,16
639;NOHA;M;12;0,16
640;OMAYMA;M;12;0,16
641;OTMAN;H;12;0,16
642;RODAINA;M;12;0,16
643;SELENA;M;12;0,16
644;SOHAIB;H;12;0,16
645;SOPHIA;M;12;0,16
646;YASSINE;H;12;0,16
647;YLÈNIA/YLENIA;M;12;0,16
648;YOUSEF;H;12;0,16
649;AHLAM;M;11;0,14
650;AIDA/AÏDA/AÍDA;M;11;0,14
651;AIMAR;H;11;0,14
652;ALINA;M;11;0,14
653;AMÀLIA/AMALIA;M;11;0,14
654;AMAYA;M;11;0,14
655;AMELIE/AMÉLIE;M;11;0,14
656;AMINE;H;11;0,14
657;AMY;M;11;0,14
658;ANGELINA;M;11;0,14
659;ANOUAR;H;11;0,14
660;BEATRIZ;M;11;0,14
661;DÈLIA/DELIA;M;11;0,14
662;EDITH;M;11;0,14
663;EDNA;M;11;0,14
664;ELBA;M;11;0,14
665;ELIZABETH;M;11;0,14
666;EMMANUEL;H;11;0,14
667;ESTER;M;11;0,14
668;FABIÁN;H;11;0,14
669;HANAE;M;11;0,14
670;HARON;H;11;0,14
671;JADE;M;11;0,14
672;JAEL;H;11;0,14
673;JUAN MANUEL;H;11;0,14
674;JULIETTE;M;11;0,14
675;KARAM;H;11;0,14
676;KAWTAR;M;11;0,14
677;MEGAN;M;11;0,14
678;MERCEDES;M;11;0,14
679;MOHAMED AMINE;H;11;0,14
680;MUHAMMAD;H;11;0,14
681;NAHUEL;H;11;0,14
682;NAIMA;M;11;0,14
683;NAOMI;M;11;0,14
684;OMAIMA;M;11;0,14
685;RIDA;H;11;0,14
686;ROBERTO;H;11;0,14
687;RODAYNA;M;11;0,14
688;ROSER;M;11;0,14
689;SAMIRA;M;11;0,14
690;SOL;M;11;0,14
691;UXIA;M;11;0,14
692;YASER;H;11;0,14
693;ABIGAÏL/ABIGAIL;M;10;0,13
694;AFRA;M;10;0,13
695;AHMAD;H;10;0,13
696;AINHARA;M;10;0,13
697;ALFONSO;H;10;0,13
698;ANE;M;10;0,13
699;ÀNGELO/ÁNGELO;H;10;0,13
700;ANTON/ANTÓN;H;10;0,13
701;ASMAE;M;10;0,13
702;DÀMARIS/DÁMARIS/DAMARIS;M;10;0,13
703;DESIRE;M;10;0,13
704;DOAA;M;10;0,13
705;DOHA;M;10;0,13
706;EMÍLIA/EMILIA;M;10;0,13
707;ERNEST;H;10;0,13
708;EROS;H;10;0,13
709;ESTEVE;H;10;0,13
710;FATIMA ZOHRA;M;10;0,13
711;GAIA;M;10;0,13
712;HAITAM;H;10;0,13
713;HATIM;H;10;0,13
714;ILHAM;M;10;0,13
715;JEREMY;H;10;0,13
716;JIMENA;M;10;0,13
717;JOSÉ MIGUEL;H;10;0,13
718;JOSUÈ/JOSUÉ;H;10;0,13
719;LISA;M;10;0,13
720;LLORENÇ;H;10;0,13
721;MALENA;M;10;0,13
722;MARIA DEL MAR/ MARÍA DEL MAR;M;10;0,13
723;MARIEM;M;10;0,13
724;MARKEL;H;10;0,13
725;MOUSSA;H;10;0,13
726;MUSA;H;10;0,13
727;MUSTAFA/MUSTAFÀ/MUSTAFÁ;H;10;0,13
728;MUSTAPHA;H;10;0,13
729;NAÏM/NAÍM;H;10;0,13
730;NAYELI;M;10;0,13
731;NEKANE;M;10;0,13
732;NOÈ/NOÉ;H;10;0,13
733;ROMAISAE;M;10;0,13
734;SABRIN;M;10;0,13
735;SOULAIMAN;H;10;0,13
736;TRISTAN/TRISTÁN;H;10;0,13
737;WAEL;H;10;0,13
738;ZAINAB;M;10;0,13
739;ZAYD;H;10;0,13
740;ADONAY;H;9;0,12
741;AFRIKA;M;9;0,12
742;AGATHA;M;9;0,12
743;ÀLEX/ÁLEX;M;9;0,12
744;ANDREI;H;9;0,12
745;ÀNNIA/ANNIA;M;9;0,12
746;ANTHONY;H;9;0,12
747;ANUAR;H;9;0,12
748;BARAA;M;9;0,12
749;BRAHIM;H;9;0,12
750;CECÍLIA/CECILIA;M;9;0,12
751;CHIARA;M;9;0,12
752;DÀNIA/DANIA;M;9;0,12
753;DILAN;H;9;0,12
754;ELIAN/ELIÁN;H;9;0,12
755;ENARA;M;9;0,12
756;ETNA;M;9;0,12
757;FABIO;H;9;0,12
758;FIRDAWS;M;9;0,12
759;IKHLAS;M;9;0,12
760;IMANE;M;9;0,12
761;INDARA;M;9;0,12
762;JORDAN/JORDÁN;H;9;0,12
763;JUAN CARLOS;H;9;0,12
764;LAYLA;M;9;0,12
765;LEANDRO;H;9;0,12
766;LEÓN;H;9;0,12
767;LUZ;M;9;0,12
768;MAGALÍ;M;9;0,12
769;MARIA TERESA/MARÍA TERESA;M;9;0,12
770;MIRANDA;M;9;0,12
771;NAILA;M;9;0,12
772;NARA;M;9;0,12
773;NOR;M;9;0,12
774;OUSSAMA;H;9;0,12
775;RIYAD;H;9;0,12
776;RYAN;H;9;0,12
777;SAFWAN;H;9;0,12
778;SAMIA;M;9;0,12
779;TARIK;H;9;0,12
780;UNAX;H;9;0,12
781;VICENTE;H;9;0,12
782;WAIL;H;9;0,12
783;YAHEL;H;9;0,12
784;YASIR;H;9;0,12
785;AFNAN;M;8;0,1
786;ÀGATA/ÁGATA;M;8;0,1
787;AIDAN;H;8;0,1
788;AIDEN;H;8;0,1
789;AINOHA;M;8;0,1
790;ALAA;M;8;0,1
791;AMJAD;H;8;0,1
792;ANA PAULA;M;8;0,1
793;ANALIA/ANALÍA;M;8;0,1
794;ANIBAL/ANÍBAL;H;8;0,1
795;ARIAN;H;8;0,1
796;ASMAA;M;8;0,1
797;AYLA;M;8;0,1
798;BRAIS;H;8;0,1
799;BRENDA;M;8;0,1
800;BRIAN;H;8;0,1
801;BRUC;H;8;0,1
802;CARME;M;8;0,1
803;DAPHNE;M;8;0,1
804;DARIA/DARÍA;M;8;0,1
805;DENNÍS/DENNIS;H;8;0,1
806;DESIRÉE;M;8;0,1
807;EFRÈN/EFRÉN;H;8;0,1
808;ESTRELLA;M;8;0,1
809;FIRDAOUS;M;8;0,1
810;HANA;M;8;0,1
811;HASSAN;H;8;0,1
812;HIND;M;8;0,1
813;ISAÍAS;H;8;0,1
814;JARED;H;8;0,1
815;JAVI;H;8;0,1
816;JONATAN/JONATÁN;H;8;0,1
817;JOSEP MARIA;H;8;0,1
818;JUAN PABLO;H;8;0,1
819;JULIÁN;H;8;0,1
820;KHALID;H;8;0,1
821;LOURDES;M;8;0,1
822;LUANA;M;8;0,1
823;LUKAS;H;8;0,1
824;MAE/MAÉ;M;8;0,1
825;MAHAMADOU;H;8;0,1
826;MAHNOOR;M;8;0,1
827;MARGOT;M;8;0,1
828;MARIA ISABEL/MARÍA ISABEL;M;8;0,1
829;MATILDA;M;8;0,1
830;MELANIE;M;8;0,1
831;MICAELA;M;8;0,1
832;MOHAMED YASSIN;H;8;0,1
833;NADINE;M;8;0,1
834;NEO;H;8;0,1
835;NIA;M;8;0,1
836;NIHAL;M;8;0,1
837;ROEYA;M;8;0,1
838;SAID/SAÏD;H;8;0,1
839;SAM;H;8;0,1
840;SINAI;M;8;0,1
841;SURI;M;8;0,1
842;UXUE;M;8;0,1
843;YASSMIN;M;8;0,1
844;ZAYNAB;M;8;0,1
845;ZIAD;H;8;0,1
846;ZIHAN;H;8;0,1
847;ZINEB;M;8;0,1
848;ABDESSAMAD;H;7;0,09
849;ABRAR;M;7;0,09
850;ADARA;M;7;0,09
851;ADRIEL;H;7;0,09
852;AGUSTÍ;H;7;0,09
853;AISA;M;7;0,09
854;AISSA;M;7;0,09
855;AISSATOU;M;7;0,09
856;AIXA;M;7;0,09
857;ALÈXIA MARIA/ALEXIA MARÍA;M;7;0,09
858;ALIA;M;7;0,09
859;ANDY;H;7;0,09
860;ANOUK;M;7;0,09
861;ARIEL;H;7;0,09
862;ARMAND;H;7;0,09
863;ARYA;M;7;0,09
864;BÀRBARA/BÁRBARA;M;7;0,09
865;BELÉN;M;7;0,09
866;BELLA;M;7;0,09
867;CATERINA;M;7;0,09
868;CHAIMA;M;7;0,09
869;DAMIÁN;H;7;0,09
870;DOAE;M;7;0,09
871;DORIAN;H;7;0,09
872;ELIES/ELÍES;H;7;0,09
873;ELLA;M;7;0,09
874;ELYAS;H;7;0,09
875;EMANUEL;H;7;0,09
876;FARNERS;M;7;0,09
877;FERDAOUS;M;7;0,09
878;GISEL;M;7;0,09
879;GISELLE;M;7;0,09
880;HAO YU;H;7;0,09
881;IBTISSAM;M;7;0,09
882;IDOIA;M;7;0,09
883;IMAD;H;7;0,09
884;INASS;M;7;0,09
885;INDHIRA;M;7;0,09
886;ION;H;7;0,09
887;ISIS;M;7;0,09
888;JAD;H;7;0,09
889;JARA;M;7;0,09
890;JINAN;M;7;0,09
891;JOANNA;M;7;0,09
892;JOHN;H;7;0,09
893;JUAN MIGUEL;H;7;0,09
894;KHOLOUD;M;7;0,09
895;LEONARD;H;7;0,09
896;LORENZO;H;7;0,09
897;MAIMOUNA;M;7;0,09
898;MAITE;M;7;0,09
899;MARIA CRISTINA/MARÍA CRISTINA;M;7;0,09
900;MARIA DOLORES/MARÍA DOLORES;M;7;0,09
901;MATHIAS;H;7;0,09
902;MEI;M;7;0,09
903;MELÀNIA/MELANIA;M;7;0,09
904;MERIEM;M;7;0,09
905;MILENA;M;7;0,09
906;NATASHA;M;7;0,09
907;NAYA;M;7;0,09
908;NÈSTOR/NÉSTOR;H;7;0,09
909;NICOL;M;7;0,09
910;NIHAD;M;7;0,09
911;NIKO;H;7;0,09
912;OSAMA;H;7;0,09
913;QUIRZE;H;7;0,09
914;RABAB;M;7;0,09
915;RAFA;H;7;0,09
916;RAYANE;H;7;0,09
917;ROMAYSA;M;7;0,09
918;SALIM;H;7;0,09
919;SANA;M;7;0,09
920;STEVEN;H;7;0,09
921;SUSANA;M;7;0,09
922;TAMARA;M;7;0,09
923;THOMAS;H;7;0,09
924;TIAGO;H;7;0,09
925;TRIANA;M;7;0,09
926;VALENTÍN;H;7;0,09
927;WILLIAM;H;7;0,09
928;YOLANDA;M;7;0,09
929;YUHAN;M;7;0,09
930;YUXIN;M;7;0,09
931;ZAIDA;M;7;0,09
932;ADAI;H;6;0,08
933;AHREN;H;6;0,08
934;ALEXA;M;6;0,08
935;ALISON;M;6;0,08
936;ALONSO;H;6;0,08
937;ANABEL;M;6;0,08
938;ANDRE/ANDRÉ;H;6;0,08
939;ANEU/ÀNEU;M;6;0,08
940;ANTONELLA;M;6;0,08
941;ARIEL;M;6;0,08
942;ÀSIA;M;6;0,08
943;AUDREY;M;6;0,08
944;ÀUREA/ÁUREA;M;6;0,08
945;BAYAN;M;6;0,08
946;BOUCHRA;M;6;0,08
947;BRAYAN;H;6;0,08
948;CALEB;H;6;0,08
949;CAYETANO;H;6;0,08
950;CHAIMAA;M;6;0,08
951;CORAIMA;M;6;0,08
952;DAIRA;M;6;0,08
953;DAVÍNIA/DAVINIA;M;6;0,08
954;DUA;M;6;0,08
955;EIRE;M;6;0,08
956;ELIZAVETA;M;6;0,08
957;EMILIO;H;6;0,08
958;ESTEFANIA/ESTEFANÍA;M;6;0,08
959;FATOU;M;6;0,08
960;FRANCISCO JOSÉ;H;6;0,08
961;FRIDA;M;6;0,08
962;HAROUN;H;6;0,08
963;HEURA;M;6;0,08
964;ILÈNIA/ILENIA;M;6;0,08
965;IMRANE;H;6;0,08
966;ISABELA;M;6;0,08
967;ISHAQ;H;6;0,08
968;ISOLDA;M;6;0,08
969;ISSAM;H;6;0,08
970;IVO;H;6;0,08
971;JAN POL;H;6;0,08
972;JANET;M;6;0,08
973;JASMIN;M;6;0,08
974;JIAHAO;H;6;0,08
975;JOAN MARC;H;6;0,08
976;JUAN DAVID;H;6;0,08
977;JUAN DIEGO;H;6;0,08
978;JÚLIA MARIA/JULIA MARÍA;M;6;0,08
979;JUNA;M;6;0,08
980;JUNO;M;6;0,08
981;JUSTIN;H;6;0,08
982;KÀTIA/KATIA;M;6;0,08
983;KÈNIA/KENIA;M;6;0,08
984;LEONEL;H;6;0,08
985;LEONOR;M;6;0,08
986;LILY;M;6;0,08
987;LIONEL;H;6;0,08
988;LIS;M;6;0,08
989;LLIBERT;H;6;0,08
990;LOGAN;H;6;0,08
991;LUIS ÀNGEL;H;6;0,08
992;MAEL;H;6;0,08
993;MAIKEL;H;6;0,08
994;MAIRA;M;6;0,08
995;MAMADOU;H;6;0,08
996;MARISA;M;6;0,08
997;MAXIMILIÁN;H;6;0,08
998;MELANI;M;6;0,08
999;MELISSA;M;6;0,08
1000;MORAD;H;6;0,08
