@startuml
class Usuari {
-id:int [1]
+username:String [1]
+nom:String [1]
+cognom1:String [1]
+cognom2:String [0..1]
+emails:String [1..*]
+potRealitzar(activitat:Activitat):boolean
}

class Rol {
+nom:String [1]
+descripcio:String [1]
}

class Activitat {
-id:int [1]
+nom:String [1]
}

class EntradaMenu {
-codi:String [1]
+text:String [1]
}

Usuari "0..*" -> "1..*" Rol: "rols     "
Rol "1..*" <-- "0..*" Activitat: rols
Activitat "0..1" <- "0..*" EntradaMenu: activitat
EntradaMenu "0..1" -> "0..*" EntradaMenu: subentrades
Usuari ..> Activitat
Menu "1" *-- "1..*" EntradaMenu
@enduml
